SimulationSecond,ReceiveRate,PacketsReceived,NumberOfSinks,RoutingProtocol,TransmissionPower,WavePktsSent,WavePtksReceived,WavePktsPpr,ExpectedWavePktsReceived,ExpectedWavePktsInCoverageReceived,BSM_PDR
0,0,0,10,OLSR,20,0,0,0,0,0,0
1,0,0,10,OLSR,20,0,0,0,0,0,0
2,0,0,10,OLSR,20,4823,400,12.0575,1760,1512,0.859091
3,6.656,13,10,OLSR,20,5153,400,12.8825,3563,3171,0.88998
4,8.192,16,10,OLSR,20,4931,400,12.3275,5373,4781,0.889819
5,8.192,16,10,OLSR,20,5022,400,12.555,7223,6438,0.891319
6,10.24,20,10,OLSR,20,4970,400,12.425,9105,8082,0.887644
7,10.24,20,10,OLSR,20,5023,400,12.5575,11063,9766,0.882762
8,10.24,20,10,OLSR,20,4982,400,12.455,13067,11451,0.87633
9,10.752,21,10,OLSR,20,5139,400,12.8475,15095,13232,0.876582
